
N
(Aikatsu!)http://www.aikatsu.com.tw/
(!)
!
:http://www.youtube.com/channel/UCVPRmwaowdA_sreojW1MTrQ
:http://www.youtube.com/channel/UCv_TwZfq5dI2bDJZjyw0GYw
:https://www.facebook.com/pages/%E5%B0%8F%E5%85%94%E5%92%8C%E5%B0%8F%E5%85%89%E5%BD%B1%E9%9F%B3%E6%98%9F%E5%85%89%E5%AF%B6%E7%9F%B3%E7%B2%89%E7%B5%B2%E5%9C%98/554934261239709