 Masda 3 2005 6 7 8 9  2,200 
   02-9323485
       SERVICE CENTER  20     P.ONE CAR AUDIO 
  1
02-9323485 ,084-5244433
 . 053-714901,081-9235308
  . 052-002209,084-5260003
 . 054-522689,081-9608451
 . 081-9933907
 . 055-247554,081-8694875
 . 036-421229,081-8338002
 . 043-242389,082-1215733
 . 084-5357217,042-413119
 . 044-353603,085-2031680
 . 076-522086,085-7938786
 . 081-8694879,075-421208
 .081-9785122
 . 077-200601,081-8694893
 . 056-721749,082-1765390
..  .092-2711005 ,037-281014
  .042-182776,098-601639
  .093-0307767
P.ONE CAR AUDIO ONE OF THE BIGGEST CAR AUDIO WHOLESALE THAILAND Tel.+66851620538 BANGKOK ,IMPORT_EXPORT WE HAVE MORE THAN 20 BRANCHS

WWW.PONECARAUDIO.COM PRODUCT CAR AUDIO ACCESSORIES HEAD UNIT SPEAKER SUBWOOFER CAR ALARM TRACKER JVC KENWOOC PIONEER SONY ALPINE CLARION FERRIS MTX KICKER TOPAZ PERFORMANCE SPEAKER WORLDTECH PIORITY ZULEX SOWAY CONCEPT DZ RPM SPATA EQUATOR SOWAY SKYPE : CHARUNEK40