 ,        !:D
https://steamcommunity.com/tradeoffer/new/?partner=180812788&token=vf8IBK-A
- https://youpartnerwsp.com/join?8258
   :D- http://su0.ru/Rlj2
  ! http://bit.ly/1mhLhsz/

=====================================
?-
    ?-  !:3
   ,  ,  :D
=================================================
  -http://vk.com/thedarknessik
-http://vk.com/club57311077
=====================================
  -http://www.odnoklassniki.ru/darknessik
-http://www.odnoklassniki.ru/group/51968880148642
//////////////////////////////////////////////////////////////////////////////////
,,,,,,,,free,,,,,,,,,,,,,,,,,,,,,aim,bot,wh,speed,hack,,,eeoneguy,pewdiepie,,Jesus,AVGN,,,,,razer,gta,TheUsselesMouth,twitch,,,,+100500,san andreas,,,cs,go,counter,strike,global,ofensive,,,Darknessik,Dark,,,,,,,,,,,,,,,SMOSH,Antonio Clown,Rakamakafo,OmskoeTV,acoolbek,,,1337,228,322,loker,,,,xray,FreeShow,Anomaly,,CS:GO,sah4r,show,,,BBLOG,VSP,GROUP,fnaf,1,2,3,4,5,6,7,8,9,0,,,,,,,,,,,,,google,youtube,,,,,,,,,,,,,,,,,,,,,,,,,,,,,,,,,,,,grand,theft,auto,V,online,,,,,,steam,origin,,payday,,,,,sony,vegas,,,,,,,,,,,,,,,download,,,, ,      9  ,  Minecraft /  1.5 (!!),   X-ray [mod]  minecraft 1.5.2,Minecraft Nodus 1.5.2 + OptiFine & Old Versions ,    5,    - Puzzle 4-6 - [Escape the NPC v1.7],  #2   - (Smart moving) ( ,      ,    AWP  CS 1.6,       (de_inferno), SAMP-RP #1 [6 , --!],C   C AWP  CS 1.6 [6], CS 1.6( ))  4,Cs 1.6-  , ,+100500,   ,minecraft  .         !!! minecraft  ,minecraft   ,,,, happy wheels, ,,,,,rampage.

?)