U Torrent
http://www.utorrent.com/


Power Iso
http://download.cnet.com/PowerISO/3000-2646_4-10439118.html



http://thepiratebay.se/torrent/7145817/Ridge_Racer_Unbounded-SKIDROW

____________________________________________________________________

 :
LIKE
COMMENT
SUBSCRIBE
  
__________________________________________