Tag der offenen Tr, filmen war erlaubt!!

Check this out: http://www.youtube.com/watch?v=7vdRPh5HUlE The Lion King at the 52nd Tony Awards
 -------------------------------------------------------------------
 It's just a little mix from the musical The Lion King in Hamburg, with the original cast =)
 -------------------------------------- 
"Er lebt in dir" ("He Lives In You")