      ,       .      .          ,            8 (!!!) ,      ,   ,          ,      .  ,    ,   ,    ,  ,  ,    .

   salapinru - http://goo.gl/0RYxP5
   -  http://goo.gl/JG2bTt
    - http://goo.gl/buXaUe
   - http://goo.gl/ybsMKG

 ,       , ,   ,    .  , ,    ,   .     ,            ,      "".         ,      ,            0.1 ,    . ,    ,   .

          ,
http://salapin.ru/blogs/video2718.html