Ppai Joci - Rabolj el rkre

A dal letlthet innen: http://www.songo.hu/hun/pages/release/6/5/3/80da002286340325e2b2e712c21c7376.html?a=b030

Koncertszervezs:
Vadsz Roland
+36 70 382 3180
vadaszroland@vipmail.hu

2011. - Magneoton