     ,       .    ! 
____________________________________________________
 ,    ! 
  ,     !
http://bit.ly/VUCT8N
____________________________________________________
    !
: http://vk.com/djfungamer   
: https://twitter.com/DJFunGamer
____________________________________________________