  5511    Spintires (Spin Tires). 

   http://modfiles.ru/spintires2015/mods      2015


(     ,    !)


3D     : -50   (DCS), OOVEE, ronnie.
: OOVEE.
: JAWA, Lexan.
: OOVEE, ronnie. 
 : ronnie.

Download mods Kamaz 5511 v1.0 for Spin Tires 2015 | by ronnie