       ,            .        ,    -        ...           Shiman Stradic 06. 2500 FB
..   ,  ,        5/1.      ...     ,       ;)  ,  .      ...  ,    ...

 Shiman Stradic 06 2500 FB     Oleksandr Kucher,     Creative Commons Attribution () 4.0 .
http://creativecommons.org/licenses/by/4.0/
    http://profisher.com.ua/forum/.
,     ,      http://profisher.com.ua/forum/.