FU's               Hairs

1.         524                  524
2.      2284                  4568        
3.      1434                   4302
4.       311                    1244

Total    4553              10,638     2,33/FU