Treinamento de viradas em tambores e caixa.
Alguns erros, j que  um treinamento...

Obrigado por assistir !

-----------------------------------------------------------------------------
Single-stroke drum roll practice with attempts of ghost notes.
Some mistakes but's a practice.

Thanks for watching !

Twitter: http://twitter.com/rfmsts