   !!!
 :
  twitter - twitter.com/YulkaBieber
  VK - http://vk.com/id133233617
  Facebook - http://www.facebook.com/ulia.dyakova?...
  Youtube - http://www.youtube.com/user/belki12/v.....
  ask - http://ask.fm/YulkaSweet
  . - http://sprashivai.ru/yulkathe_
   Instagram - j_yuliad_b
  - dyakova.yulka@mail.ru
kidrauhl94-believe@yandex.ru
    VK - http://vk.com/public51846294

  ,         :
 - http://vk.com/miss_dilya
 - http://vk.com/id190424696
 - http://vk.com/st.vyacheslav

,     - http://vk.com/kennisims