 KANUI 10% DE DESCONTO   http://bit.ly/1dMmCHm
 MINHA CUNHADA  http://bit.ly/1ftLeJX
 LIKE + COMENTRIO = GO 3500 LIKES SEUS LINDOS! sz

Se gostarem do vdeo no se esqueam de curtir no joinha, salvar nos favoritos e pra receber mais videos se inscreva no canal.

Algumas informaes bsicas sobre o canal:

Twitter: https://twitter.com/#!/thecreepersbr

Bora Curtir: https://www.facebook.com/thecreepersbr

Canal JAPOUX: http://www.youtube.com/user/JapouxServer

--------------------------------------------------------------------------------

http://bit.ly/1dMmCHm

CAIXA POSTAL 76248
So Paulo - SP
CEP - 02737-050

Mande o que voc quiser para o mano spok, farei um vdeo com todas as cartas, e a mais pica eu vou responder e vai chegar uma carta na sua casa.


--------------------------------------------------------------------------------

DOWNLOAD: http://www.4shared.com/zip/wpOI_Kvoba/Smoothic_2.html