This is the last video of week 18, new week starts this weekend. Leave a like, Comment and Favorite to show your support to the team you think should win and also this channel!

------------------------------------------------------------------------------------

Team #1: https://www.youtube.com/user/ZeroGravityTM

Team #1's Editor: https://www.youtube.com/user/newjackhd

Team #1's Music Used:

Shinedown - Sound of Madness
Artist:https://www.youtube.com/user/ShinedownTV

------------------------------------------------------------------------------------

Team #2: http://www.youtube.com/user/PsyAlliance

Team #2's Editor: http://www.youtube.com/WeedeTheSniper

Team #2's Music Used: 

Blood Of The Martyrs - The Kill

------------------------------------------------------------------------------------

Like us on Facebook!: http://www.facebook.com/theclanwar
Follow aClanWar on Twitter: http://www.twitter.com/#!/aClanWarYT
Winners of aClanWar: http://goo.gl/Vgrny
Want a Subbox, Bulletin, or Shoutout?  http://goo.gl/PCwmm

------------------------------------------------------------------------------------

Partners:

TheFPSFx: http://www.youtube.com/user/TheFPSFx
1v1 LB: http://www.youtube.com/user/1v1LeaderBoards
TT30FC: http://www.youtube.com/thetop30feedclans