TABOO

TABOO
https://plus.google.com/102298843738261797190/posts
TABOO 8kg
https://www.youtube.com/watch?v=Wt53YhbJnrI
TABOO
http://ameblo.jp/sirodori/entry-11594009278.html
2013
http://www.youtube.com/watch?v=z1FYz0s-eos
 
http://www.youtube.com/watch?v=yhH2bpbNglg
   
http://www.youtube.com/watch?v=zofcs4WIyQY
GTR
http://www.youtube.com/watch?v=UWsMNo9i224

http://www.youtube.com/watch?v=JYe0CFiNS4I

http://ameblo.jp/sirodori/entry-11345559916.html
https://www.facebook.com/photo.php?fbid=369172319870447&set=a.233601006760913.51684.233022790152068&type=1


201321
facebook https://www.facebook.com/ramentaboo
twitter https://twitter.com/ramen_taboo
2013 Going Taboo Road https://www.facebook.com/ramenfestaboo
1546-1 055-968-7575
11:00-14:30 18:00-23:00 
1043 7

MENU2013
4W64W64W6
DX




270g360g500g700g




20129OPEN!!