 Tokina AT-X 124.
, , , :
 Tokina AT-X PRO DX II 12-24mm f/4.0 (Canon) http://fotos.ua/tokina/at-x-pro-dx-ii-12-24mm-f-4-0-can-n.html
 Tokina AT-X PRO DX II 12-24mm f/4.0 (Nikon) http://fotos.ua/tokina/at-x-pro-dx-ii-12-24mm-f-4-0-nik-n.html

     ,  ,      Canon   Nikon ?       ?        Tokina AT-X PRO DX II 12-24mm f/4.0.     .