Andoria S320
Rocznik '64
18KM
Po kapitalce

Zapraszam na mj nowy kana w ktrym prezentowane bd gwnie takie silniczki :D https://www.youtube.com/channel/UCamdccFv-Vs7yOreMrCh8kg
------------------------------------------------------------------------------------------------------------
Andoria S320
Year '64th
18PS
Repeired

I invite You to my new channel where I will be presenting just such engines :D https://www.youtube.com/channel/UCamdccFv-Vs7yOreMrCh8kg