videoId,dislikes/views
ZUIMgFKplbI,0.000946969696969697
ZU_xPXFMfLU,0.00016964967342437867
ZUPM4SSmXiE,0.0
ZUHfo2SGEbo,0.0
ZUqqJbzTVNw,0.0
ZUdF0pr9m7g,0.0012237150991458968
ZUAYDNGqIR4,0.0019828155981493722
ZUYBFH6SXC0,0.0
ZUK38o3Bu3I,0.0
ZUbZ13AxrHA,0.0
ZUg1bOQ83gM,0.0010635469290082426
ZUYkI_jZ3W4,0.0
ZUJq9HRi-pM,0.00011285603910027694
ZUFEOdY-znM,0.0006447453255963894
ZUPYPloA0Tc,0.0007401924500370096
ZUd3eRb0AoI,0.0005733944954128441
ZUZc2hIdwps,0.0004100041000410004
ZUY6OsAsjBo,0.0
ZU9dZcHzwuM,0.00023277467411545624
ZU08s8F2ULc,0.0001128668171557562
ZUh1Ef5I_rY,0.00013363624214887077
ZUYhGZv_fMg,0.0
ZUoq2n7hSxU,0.00023758612497030174
ZUUF-7Nj0IM,0.00039093041438623924
ZUtR0n6dobU,6.662965019433648e-05
ZU9_zX0s5uI,0.0009480669967344359
ZU16ttphg60,0.000327653997378768
ZUxoLkF3x5A,7.034822370735139e-05
ZUWT6Qgz48U,0.0
ZUsCmyTcj-I,0.0004938027751715965
ZUj7iQIJrMQ,0.0
ZUyzk9Mbdwk,0.0004608294930875576
ZUZOzzZ5pl4,0.0
ZUFFX1omdDU,0.0
ZUYj2oUhdYo,0.0
ZUf-mOXr_88,0.0002223828320453661
ZUaoD3sUROE,0.000754261577915221
ZURKWii9DUQ,0.0
ZUl167duSsc,0.0004209640075773521
ZUXQ51UM6Ug,0.00010716964955524595
ZUgkQIrwUgk,0.00018800526414739614
ZUC4qa-Mgt8,0.0001589067217543302
ZUA5RSqFXfM,0.0
ZUSWYnxorJI,0.0
ZUQ6togZAm0,0.00017047391749062393
ZUXCbjz2fEU,-1
ZUMpA8bF6TQ,0.0005554012774229381
ZUbXtwB3-Rk,0.0007199424046076314
ZUc40c9yIEE,0.001339035030884195
ZUNmjgqu65Y,0.00030248033877797946
ZUjGI48fak8,0.014628437682855471
ZUlf5kakts8,0.0
ZUbmUfto3Yc,0.0005629362756136005
ZULGZJQFSSM,0.0006162220453436722
ZUFdeeRcp5g,0.0
ZU1SnoIMRNs,0.00015445208124179472
ZUwZUroO1Qg,0.0006765245965014014
ZUemwienI_0,4.466578823949796e-05
ZULbAv5Z-vI,4.881183849789702e-05
ZUwBPRF76x0,0.0
ZUItekICiGw,0.0
ZUgbfZNV2KQ,0.0034876347495244133
ZUorUI3lBVs,0.00021937521937521939
ZUOW1SGqsVY,0.0008180437069066262
ZUbAwlz_Gmw,0.0
ZUMFF9OYPj0,0.0
ZU2vPRKYTeM,0.0
ZURl07LHRIM,0.0
ZU9Eb1mDG4A,0.0
ZUc3tCmh_Wo,0.00014697236919459142
ZUE6ClUiQWk,0.0001405086412814388
ZUo9I9pGttM,8.335266148672156e-05
ZUInBPUpSvY,0.0005470459518599562
ZUKtOlOnJPg,-1
ZUyZP9ASO1c,0.0
ZUnBDODD86Q,0.0007738440704198104
ZUYjlCfEGfA,0.0009000900090009
ZUZSbqZ02VY,0.0
ZUyCKbFwipI,0.0002380952380952381
ZUznbrQuwOw,0.00017041581458759374
ZU-7sTv_76U,0.0
ZUOYtXlx93c,0.00010956674179814675
ZURa457Fk1Q,0.00038877225721172535
ZUmHSqTFmmM,0.000462000462000462
ZUGpYdpb1NU,0.0
ZUGEXJUYmrE,0.0
ZUPmBn1vbc0,0.00016980811682798438
ZUSTyVGQmSw,0.0003621220351258374
ZUW6HzX77ZI,0.00030716573785598316
ZUU0jBgkqkQ,0.0
ZUCwtboja00,0.0008136696501220504
ZURtz7am2vg,0.0
ZU1p8ptV3qc,0.0
ZUR9doFO3Ko,0.00038066235249333843
ZUP_A2bbcQM,6.605456106744171e-05
ZUU1XOOr52o,6.962333774281139e-05
ZUgHvHkeRoo,0.0009049989282907428
ZUUgVFAjszQ,0.0003924133420536298
ZU9wYGQecbg,0.0
ZUW1x1JjtRw,0.00019964064683569574
ZUfIm4hZmSc,0.0
ZUyjS5p--UY,0.0022811519817507843
ZUK9U4-oqGc,0.0003589375448671931
ZUxKx6IYcYs,0.0007872244714349977
ZU_ISLl2oL4,0.00017677214071062401
ZUKIbx8pK2g,-1
ZUxAvcRztkY,0.0006574081682964911
ZUaTlsRT62I,0.0005087820200858293
ZUJYBbTVvtc,0.0
ZUa9V0puunw,0.0007627765064836003
ZUYynsecbOU,0.00013340448239060833
ZUXfwXQ_kjs,0.0008438818565400844
ZUgbgOpn_KE,0.0
ZUeZUDwGpz4,0.0
ZUMXCEq6YrQ,0.0002575107296137339
ZUS99RANILg,0.0005371530886302597
ZUUUfkp1ge0,0.0011116051578479323
ZUbFNCBrjQM,0.0002053388090349076
ZUIvRjvipuA,0.00013226638449837975
ZUOH9ed5ZbY,0.00023909145248057382
ZUq4iF5YxSE,0.0010095911155981827
ZUYIezdXWEQ,0.000305392726563229
ZU5b5A_lPAc,0.0
ZU_C3FeD3Bc,0.00022678822515534994
ZU8Lp3mbPHk,0.0001859773107680863
ZUaT6ffddjs,0.0
ZUwrTcgFlDs,0.0007183908045977011
ZUmy-g3zCwk,0.0002595380223202699
ZUdw_ovxziw,0.002243829468960359
ZUsqj2cNFhg,0.004314994606256742
ZUdew5gMbTg,0.00018468088821433729
ZUumoRQlnLk,0.00030184123151222455
ZUL013WGrWs,0.0022865853658536584
ZU_i9IYJDkM,0.0002710761724044456
ZUoFKLgft0s,0.00269888722803521
ZUMyb4fTZHA,0.008026755852842809
ZUupT37-ykY,0.0008503401360544217
ZUWDofkIx2Q,0.0
ZUmbNK3P7YQ,0.0011308379509216329
ZUp2HzBORLg,0.01533551300015569
ZUgWumTh-dE,0.00027789356676392944
ZUj0_pJXiRI,0.0002411672494875196
ZUm219FoAJU,0.002586652871184687
ZURUiF1KBTc,0.0
ZUZqO2XsI3Q,0.0
ZU-wpGZTN7Q,0.00021654395842355997
ZUjURwzlqik,0.0013291244392756273
ZUbvoGFcMw4,4.03985995152168e-05
ZU-jbYA4oWk,6.559527714004592e-05
ZUYzCaD-47s,8.175545308872102e-05
ZUinPUaNaps,0.00030902348578491963
ZU4RKgxuCes,0.0005200478444016849
ZUBHHwAxLSE,0.0009923447689254325
ZUU9wX02FN4,0.00017397355601948505
ZU3RXzc2MkM,0.0005376278393470265
ZUrc_vHwA3s,0.00020368969330151893
ZU8lGlGeMwI,0.00010715160421258878
ZU987T4jvdE,0.0
ZUDHqAW8VCs,0.000655307994757536
ZUE_cfRnJ94,0.0
ZUEsPV4gnuM,-1
ZU4y45G2iBc,0.0003261401315431864
ZU675v06srw,0.0004600284969004026
ZU1YVZIdbX0,0.00048355899419729207
ZU-MGCDN140,0.0
ZUN3-J5oR7w,0.00046382189239332097
ZU6tRNevn5I,0.0
ZUDesyXKsK0,0.0
ZUfzW1j06aE,0.0005082075519642222
ZUn0-m3Xl_U,0.0024509803921568627
ZUgbwFYPO7E,0.0010523546435148646
ZUYEKi7NFL8,0.0002565418163160595
ZUDwbHR7e_k,-1
ZUPb-l4xi3E,0.00020048115477145148
ZUfyQoY8Oys,0.0004526422994228811
ZU4A_v9SGOo,0.0013681592039800996
ZUL2CflfbeY,0.00024719434419340485
ZUqomZiXAks,0.0
ZUjCZlcHbV4,0.0009229349330872173
ZUfTCRbJxLU,0.0
ZULgU0aWtYA,0.0006454736162659351
ZUQKvrNAhl0,0.00023191094619666049
ZUAMp3AmXRA,0.0010369858278603526
ZU5NtNXrdEc,0.00021591166128601098
ZUI87a0jMis,0.00020177562550443906
ZUMZA6_2pvI,0.0002748007694421544
ZUQckBrCkLU,0.0
ZUghwW0tHUc,0.0
ZUkNYofzsH0,0.0
ZUqV8eqOwdI,0.0
ZUkmenLDLkQ,0.0009643201542912247
ZUaekTwtaAo,0.0012026458208057728
ZUepr7yQtFg,0.000555247084952804
ZU2zzquwz8k,0.0
ZUsH6O_86bg,0.005978660779985283
ZUQG8KhC6lU,9.648039518369867e-05
ZU5rSQUOvkw,0.00023551577955723034
ZUL21Qi3RSs,0.00026123301985370953
ZUaPp5HyscM,4.9348598499802604e-05
ZUnOPhMFq4Y,0.0003505082369435682
ZUbjmJSZUIg,0.00014521516046275232
ZUdqYP7CLxU,0.0
ZU5A4CYMFMI,0.00021640337589266391
ZUk95Pdz5yk,0.0008578168561012224
ZUUGzuBhm4A,0.0005546311702717693
ZU1nI7jxO3w,4.693513564254201e-05
ZUe0p0DqFCk,0.00013196577687519704
ZUTmuZhtSTQ,0.00020206102242877348
ZUEVzPdsJRQ,0.0
ZURxaOhQwZI,0.0008904719501335708
ZU691rG3BKs,0.0003444712366517396
ZUAYm5sXJLM,0.0010845986984815619
ZUZM9Q8sIcU,-1
ZUjrs8OyMVM,8.870359693085554e-05
ZUwgkGzMnDU,0.00014716162024943895
ZUbQMVKE0hI,0.0
ZUKcBfsHEJ8,0.0
ZUWsUxiNFig,0.0
ZUbzumO4JRg,0.00010912265386294194
ZUqZb29RxCI,0.0
ZUsVVpFDh3A,0.0
ZUjIuLoWJy8,0.002089427496865859
ZUwikxopbnE,0.00010380335492443116
ZU5oezbMAvc,0.00032345013477088946
ZUYb3K8IPGY,7.457955774322258e-05
ZUTLl8t1qeo,0.0002897710808461316
ZUVtY2Wjc8Q,6.578514571409775e-05
ZUf3e34ZO3A,0.0005186721991701245
ZUhf1oE-OxM,0.0010526315789473684
ZULAIJl_Xeo,0.00015002625459455406
ZULjDZFyLFc,0.0
ZUec__gylGU,0.0
ZUqIjq-AhbI,0.005204280155642023
ZUFsFYhiESg,0.0007864726700747149
ZUdKYgKjx70,0.0004329004329004329
ZUEsNjRCzBE,0.0005027652086475615
ZUP8apiB06E,0.0005473453749315818
ZUq_g3F1rBU,8.590327291469805e-05
ZUPWcvrciPM,0.0009711880867594691
ZUeEtDDHe2U,-1
ZUDoimIXVzs,0.0
ZU8TyJGuGlo,0.0
ZUHkY7aG6Tw,0.0001811102055600833
ZU_v1FCwX6k,0.0
ZUXboqx0MBU,0.0006600660066006601
ZU2AnGi0t5I,0.005108556832694764
ZUplfZKwPrg,0.0
ZUqcCSWPbjg,0.0
ZUc5dMcKRGg,0.0001574555188159345
ZUNHiyBwLtE,0.0006887052341597796
ZUOidVv82dM,-1
ZUnmRZHg-Z8,0.00015863782983448787
ZUORhnDzeRY,0.0005313496280552603
ZUP23x--03A,0.00031984647369262754
ZUqDqcRGp3Y,0.0006071645415907711
ZUfH__sv0h8,0.0
ZUqj0o3H_P4,0.000513347022587269
ZUv5WW8cUmM,0.00108499095840868
ZU_J87B89bQ,0.0007573844988639232
ZUX9GUqEDN0,0.0002548203516520853
ZU0X4yDaxi8,0.0
ZU8_XrdeLY0,0.0
ZUcCPHQ2sCw,0.00018521948508983145
ZUwPA8oofcA,0.0
ZUMV-Wko-PI,0.00030662305805396567
ZUD6Pd23r_s,0.0
ZUWukJBadIE,0.0
ZUt5mbDoTv8,0.0
ZUvHhUIZ1O8,0.0005892751915144372
ZUhQ6tRbygQ,0.0005350454788657035
ZUD7bU19jOM,0.00048426150121065375
ZU4rT6RB2Sk,5.742478549449918e-05
ZUpjp63sM_o,8.618460742911317e-05
ZUUakWILcoM,0.0
ZU-BRRUL-1g,0.0
ZUgrpMW2h_g,0.00015733165512901197
ZUJu1p3nGvA,0.000254000508001016
ZUp7ICg-vos,0.00045372050816696913
ZUN6y_pma38,0.0002472799208704253
ZUdAPjWklxs,7.032101543546289e-05
ZUEckzxVk2M,0.00011936022917164001
ZU6aUU-cjrk,0.0001409310846995819
ZUN1baY-HQo,0.0
ZUibrIf5nDI,0.0004735202492211838
ZUAKAhTxVzI,0.0
ZUWy-NXepL0,0.0
ZUz8goBwuOE,0.0006591957811470006
ZUOP2c0zWv8,0.0
ZUXGNCSSbAo,0.0
ZUHktsGFtiw,0.000641025641025641
ZUsVaE-F_vQ,0.0
ZUfiExMWP1M,0.0
ZUtYathtMz4,0.0
ZUb5alSpNEU,0.002357563850687623
ZURFs-xTtaE,0.0
ZUoc6jBeM8M,0.0003637686431429611
ZU748o9tjjw,0.0
ZUh8DPcbTdo,0.0
ZUtiplR_dys,0.0
ZUJo4LPmLTo,0.0
ZUYzXrbxu4k,0.00026932399676811203
ZUniks1PQTo,0.0
ZUj0gN4TOqY,0.0001232741617357002
ZU6rXowUDBE,0.00046816479400749064
ZUzyPnkjXDg,0.0014245014245014246
ZUTdOE2Ct68,0.002260738507912585
ZUfQI1_CZFg,0.003771551724137931
ZUulaN3GkG4,0.0
ZUwJTM9v1po,-1
ZUagCZN-QQE,0.0009229349330872173
ZU3s0j_CR1o,0.0
ZUswMBhGyi4,6.446886446886447e-05
ZUPduHnaEfs,0.0012172854534388314
ZUkzw-azTZI,0.0008045052292839903
ZUtQhe67Q3k,0.002117148906139732
ZU6RXtUhl14,0.00018483209463403244
ZUQda1En0mo,0.0
ZUiRRIEWySA,-1
ZUu6-SQDgvw,0.0
ZU2FQ4H8B8E,0.0002170374389582203
ZUU7c7JWdNQ,0.0005178663904712584
ZUzdV0IvkZw,0.0
ZUl2U_WN-w4,0.0
ZUDpWRRaIss,0.0
ZUrWn7UYLMU,0.0026136957658128594
ZU2WNXy97x8,0.0
ZUHAAE8ndKw,0.0
ZUZghAdzrBc,0.0005952380952380953
ZUCFLnWqWC0,0.0
ZUUgooeVKcI,5.771839196559984e-05
ZU1oVQE_kTw,0.0007471398552416531
ZUwqZ0rJOoA,0.0003670510506836326
ZUFDactJM1Y,0.0
ZUVh3x3-I-s,0.00012284159309523427
ZUVcYP5Gpjo,0.0
ZU0_04D7EAM,0.0002348993288590604
ZUVAjq4SzoE,0.0004380201489268506
ZUlJzewXA70,0.00010523546435148645
ZUOUlUxYP5g,0.0
ZUfV7kar5EA,0.002282410225197809
ZUJAg_7Dxm0,0.00047460844803037496
ZUq6QDuSbfY,0.00037476577139287947
ZU8CTpy2_ns,0.00010752688172043011
ZUFCjvicLyg,0.0008074935400516795
ZUWvd9CchOQ,0.0
ZUY0OWtGLdk,0.0002639741305352075
ZUJno-Ejwvs,0.00020100502512562814
ZUk49HxeJFw,0.0003199702737294084
ZUuid3j9ee8,0.0006463427771194657
ZUImPOcItsg,0.0002442002442002442
ZUxChjG49eE,0.00038424591738712776
ZUsjxjsCEMw,0.0
ZU46ijLLE4U,0.0012683916793505834
ZUm51KhaCWw,5.482456140350877e-05
ZU9jrfoA5cM,0.001003222213720339
ZUFeg-KJgeA,0.00038226299694189603
ZUPEto3-U6w,0.0
ZUk4FnYjfqY,0.0002450379808870375
ZUtnEyTPKug,0.0006530612244897959
ZUxCpj4RH2c,0.00023251565328594442
ZUvgpq9g3Xg,0.000171939477303989
ZUUXBMd2rf4,0.0005298166911594091
ZULS_xwx7dg,0.0
ZUeI2hIpeWg,0.0
ZUCNPTcU4lE,0.0004097822584174448
ZUlzHVM6pYE,0.0007485029940119761
ZU7XZvgk_HQ,0.0
ZUPBHRhB2Qs,0.0
ZUh0oD5IxLI,9.63020030816641e-05
ZUXbmE1fQZ4,6.782074975838858e-05
ZU1iHklLpmA,0.0
ZU2ZruiYHRw,0.0002704895861509332
ZUIw2qvMteE,0.00021549402004094386
ZUMz3qH_238,8.114084021340041e-05
ZUUX_JIaqlM,0.0
ZUOBac7Pu0I,0.00025586899507452183
ZUHK2JDNlho,0.000671591672263264
ZUnthFJK6cs,0.0011884325894625644
ZUoztb2Took,0.0
ZUH2uccxSDs,0.0002014098690835851
ZUI_EqP24zs,0.00024173566205354445
ZUGDGdW2ARY,0.0
ZUG5L0GsIIc,0.00015984654731457802
ZUI-oseQgmM,0.0
ZUexBnwLwF8,0.0
ZUFXPVTxato,0.002136752136752137
ZUIJEGd8O5M,0.0009578544061302681
ZUgJXeToltg,0.00032423085236688525
ZUL9wcKVMOg,0.0001786352268667381
ZU49sFZsfA8,0.000425531914893617
ZURTKzKcZSU,0.0004306632213608958
ZUnIMQSvDOA,0.000392156862745098
ZUvHxNSJIn0,0.0004842168369111577
ZU_H2xNUyYM,0.00026586316908897554
ZU1vQXcMi6U,0.001658374792703151
ZUY8_yQEm64,0.00037269726333723777
ZUXXkK-tb6U,0.0
ZUX9xF0aCQg,0.002372975991066443
ZUQFN6z37vw,0.0
ZUkd91weK9I,0.00021021652301870928
ZUmXIILKI84,0.00010092854259184497
ZU1ox3six4c,0.0
ZU0_2E_jKR4,0.0008403361344537816
ZUudb8FjALo,0.00031152647975077883
ZU_4iOy1vMY,0.0002353494939985879
ZUC6EM-qt9M,1.8330461561022105e-05
ZU1hG_GVibY,0.0
ZUq458ifKvY,0.0
ZUEmuviC6JE,0.00025652386837993516
ZUq3l4ttP5Q,0.00040958427196395656
ZUG4_XUp-4Y,0.0
ZUr-QVoyzPI,0.0
ZUWPN75zJaM,0.0006854009595613434
ZUDSdBvPkG8,0.0005037783375314861
ZU7AoUms15Q,0.0011504170261719873
ZUJkLpKlpgs,0.00035206618844342737
ZUNT8Urg9yU,0.004841312533620226
ZUuNuj-lq6k,0.0003068136225248401
ZUVCCvWDKQc,2.849002849002849e-05
ZUGlXRRzF0M,0.00013926930040388097
ZUNUOywmlPc,0.002150537634408602
ZUYydBgxDPI,0.0
ZUHxvrZwrMo,0.0
ZUFPVk5fcss,-1
ZU-W69CtPSE,3.5533445855911876e-05
ZUHwuJ-flMY,0.0
ZUm8yGivwnU,0.00089632506722438
ZUzqeiakH78,0.0
ZUMywgm2GNM,0.003142183817753339
ZUs-yeT1S_A,0.0007722007722007722
ZUKrvhMF4cM,0.0014619883040935672
ZUXvrTKtkf8,0.00106315118009781
ZUGkkgFWEAo,0.0018705574261129816
ZUaaOJsKj5Y,0.0
ZU0kzIRL14o,0.0
ZUYUGzQFDa8,0.0002881014116969173
ZUvFo5xi164,0.002577319587628866
ZUcKWI8a76w,0.0
ZUrDSvNqnIM,0.0010380622837370243
ZUNoZr49Rtw,0.00038774718883288094
ZU_bJMo3dq0,0.000122684333210649
ZU_sCqnMuBU,0.000317931326833404
ZUUNB37NxRQ,0.0
ZUPk4cqhHhs,0.0
ZU4Gdfzt_m4,0.0
ZUVQjM9Gvjk,0.0010957017186864102
ZUbJPN9zb9A,0.0003221757195004453
ZUc0IgPOQb0,0.0
ZUbWKn_TMoU,1.845188670541563e-05
ZUur9D8OuYU,0.0004192872117400419
ZULNxammxp4,0.0008628127696289905
ZU-V0eD76WM,0.0002583578773316798
ZU3ocTK0_0A,0.0
ZUMEhB2YG2E,0.0
ZUXx6RXpVzc,0.0006971070059254096
ZUFFxtM0dkc,0.0003582303421099767
ZU7FWmPkcoA,0.0004740274679121926
ZUJ36qNy8R0,0.0006353240152477764
ZU_iomhpcXA,0.0003746721618583739
ZUR7V_eGsFE,0.0
ZUHsxQpq8k8,0.00032499187520311994
ZUL4GeH091w,0.006505576208178439
ZU04ypFR3ww,6.378364587319811e-05
ZUEaL2ymLTk,0.00035310734463276836
ZUXgCfrk5es,0.0
ZUCaVOjmcak,0.0
ZUMvmk7KJPE,0.00031938677738741617
ZUIIC8s7Ia0,7.193209610128039e-05
ZUKP75EyRZs,0.0
ZUYzaTFIQf4,0.0003762227238525207
ZUu4BW9xpwM,0.00023261223540358222
ZUL53zhzm10,0.0
ZUZItxyRXc4,0.00012786088735455825
ZU2HDHudhSE,0.0005333333333333334
ZUzZV6S6Ckw,0.00011517045226935865
ZULXsNRpenE,0.001725625539257981
ZUeSggfz8PU,0.0
ZUi4Uyr5-fU,0.0
ZURkZcUubgQ,0.00035919540229885057
ZUxznpGZtsM,9.055674285507299e-05
ZUFGCdZ2JoE,0.0001405086412814388
ZU3s9324VBI,0.00017417051293216058
ZUTo-Kzrn2A,0.00018340547281930892
ZUYQo7a_FQQ,0.0018968228217735293
ZUzOFiitC7o,0.0
ZUO-1mLsENQ,0.00282574568288854
ZU83m2QW2fc,0.0
ZUUBWNIyXBo,0.0
ZUGdLFpkFWg,0.0003992547245142401
ZUoTsB7vjBM,0.0
ZUNe0TC9ibA,-1
ZUFjmYBOeIA,0.0004472271914132379
ZUOs2RjzLe8,0.0002677913905067952
ZUhvvjdsvEc,0.00019592476489028212
ZUD6y4osgvA,0.000198294665873488
ZUJVeEPbWyY,9.98834692858332e-05
ZUkgsw5WeiA,0.0
ZU_P0Lv9B40,0.0
ZUu9kTRhmqo,0.0013602357742008614
ZUDuMvoCz5A,0.00016549167576870885
ZUnPu51G2RE,0.0
ZUDsXRpP-1I,0.0005627462014631402
ZUFKKmCBI9Y,0.0010723860589812334
ZUdpeZNUea0,0.000211864406779661
ZUHHABOUFLg,0.0005211047420531526
ZUfB6syu2Uw,0.0
ZU-XCyXSZYk,0.0002920560747663551
ZUVQKV8gWFg,0.00035803795202291446
ZUec-ceHIqE,0.00012906556530717606
ZUt1w0JJxMM,0.0017880557873405651
ZUbkZwftnDc,6.146470389378899e-05
ZUc-D8qeJ_0,0.0004391743522178305
ZUizjn0nxq0,0.0007168458781362007
ZU4KxhWuBwI,0.0
ZUKwUAf9rYY,0.0
ZU6Axr1spuw,0.0
ZUIhh64-IFQ,0.0
ZUI6tFAtOhw,0.0
ZUuFQkjG9fY,0.0003590042165152289
ZUDlTCBepNc,0.000389299665111567
ZUoFj49akFU,0.00013845621322256836
ZUP6CaBQwX4,0.00017138733537795417
ZU_W1RTtFfM,0.00014038118892068462
ZU5UdcDgeQQ,0.0
ZU5RfbIyIHI,0.0003139717425431711
ZURjAaSGQRE,0.0002866414831649315
ZUR7BJnF3RA,0.0004020908725371934
ZUZDv7Wq-p8,4.444246922359006e-05
ZUckFo7EkWc,0.0023596035865974517
ZUmMldXoWBk,0.0002754062241806665
ZUjAl9pLU8s,0.0005325623858794887
ZUcUOnSp6bU,0.0002995805871779509
ZUfkKcjepIY,0.0
ZUVKjfmJiWk,0.00025940337224383917
ZUmn68T9Xa0,0.002826189354686764
ZUy7W8IyLDQ,0.0
ZUK9kG_1wDU,0.0
ZUN0a50Br5Q,0.0008992805755395684
ZU2jpjMddhc,0.0024752475247524753
ZUVKBhaMpX4,0.00045662100456621003
ZUZqvZMbtIc,0.00021547080370609782
ZUw_9RNFbtY,0.000303905181583346
ZUa9C5c9FZY,0.00022815857020629338
ZULlZ3EPZDo,0.0
ZUnLdgKlPGU,0.0
ZUwdxqqsIaM,0.0008952292942127758
ZUVPWEkWZGo,0.0
ZUVP0KfNTBo,0.0020689655172413794
ZU05rIv87VU,0.00021742330496947492
ZU9rMVJRazA,0.0
ZUGSNhUpH2U,0.00011402880041701961
ZUJU_G-jBXs,0.0006958942240779402
ZUjJVyqEsuM,0.0
ZUO5wNWdnm0,0.0
ZU9RRG8V5PI,4.804631664924988e-05
ZUR84LezwzU,0.0
ZUb7mdT-1jo,0.0009876168046797841
ZUf3d4B9ZJ4,0.00035079140667354075
ZUZtvVY82kE,0.0
ZUQuR_KYTKo,0.0002994908655286014
ZUdPDiqrHto,0.0008032128514056225
ZUqbzzPz5ug,0.0007127583749109052
ZUWVF_zxRFI,0.0010787486515641855
ZU3faLUgaU8,0.0
ZULZPAv7gVE,0.0002641310089804543
ZU0pntKFD0o,0.0
ZU7xCnbhreo,0.00016278691193228064
ZU7UqflG0po,0.0
ZUawo2kx53w,8.824567596187787e-05
ZUq4TW3GBE4,0.0
ZU0sz5FQrrI,0.0
ZUPjWInPw3w,0.0004220866428763286
ZUWLwsB2cBk,0.0010238907849829352
ZUmnmwmX9Nk,0.0002255299954894001
ZUXFNeavrQA,0.0
ZUxGKRFXS8E,0.0015873015873015873
ZUUimxL25eQ,0.00019444444444444443
ZUbp5in08ow,0.0005837711617046118
ZUCdOCtalyA,0.0003054589131875414
ZUHldZjJPt4,0.00017378081894210926
ZUykZ9kbIZI,0.004512528203301271
ZURKGuy05JU,0.0002712722669319107
ZU79bUsaYbc,5.876476464711759e-05
ZU8Y2pVV0iY,0.0036706869428421605
ZUCUSfTQmfY,0.0001432203086397651
ZUnfgMfIr_Y,0.0013408420488066506
ZU-7UV3blzs,0.0003299241174529858
ZUPqQNaoE18,0.0004314063848144953
ZUnt3WyyDA8,0.00013157894736842105
ZUpKCyCx7to,0.0005205923183711244
ZUm4XhtVvC4,0.0006009615384615385
ZUp050CQ_Lo,5.7633565788715346e-05
ZU9nTVX-0v4,9.693679720822024e-05
ZUlTkZMwO0k,0.0005128956623681126
ZUfA-_cFXIA,0.0
ZUwOk77vYzI,0.0007137504014846009
ZUJb9YBIDLQ,0.0
ZUg7tm13Lmc,0.00046189376443418013
ZUrPUsdyf14,0.00020905289947282312
ZUT6VkHgb3U,9.68199061727091e-05
ZUhfmyyo5Pc,0.0007501875468867217
ZUihAWn1wTg,0.0
ZUvxURUW1QM,0.0008438818565400844
ZUAbGWhk7os,0.0012461059190031153
ZU5fyoj4z64,0.0014884644008930786
ZUfsR6dq4BU,0.0
ZUKEmLTkZTU,0.00010749220681500591
ZUNMWzLJoQQ,0.00012717792191275595
ZUmhEGWOg14,0.009104704097116844
ZUidEb5FEjE,0.0
ZUCMAVhdsJA,0.00021177467174925878
ZUSRVbc_U7Y,0.0
ZU9uHnG-7QU,0.000770728541294824
ZUcJdXWpFoM,0.0
ZUEhKOpCUGY,0.00040267375372473224
ZUf_d50mkzQ,0.0
ZUmJgwX6HRk,0.000990169035999717
ZUAraigPHgM,0.00048146364949446316
ZUmyYKHSt_U,0.0020094692798942964
ZUbWTlnX18A,0.00020875022586549976
ZUCrmq8JmT0,6.355560930700939e-05
ZUSN-XDFNLY,0.0
ZUiukSGCGwM,0.0003079901443153819
ZU71SchRbvw,6.893699158968702e-05
ZUt0UkRTBbc,0.0
ZUsvHEeIEy4,0.00033633041099576224
ZUNpL92LrR0,0.0006807351940095302
ZUs2qlb54pg,0.0008087343307723412
ZU2YtWbDA5U,8.814455707360071e-05
ZUE6YF43BP0,0.0
ZUfoTP3Qm7E,0.0002211465218566479
ZUXaODD-KsQ,9.748488984207447e-05
ZUeddMeQeGk,0.0005445140212360468
ZUSDNPtNAeA,0.0009092562284051646
ZU3nvZpF_Fw,0.0
ZUMMfawp54Q,0.0
ZUCGFiQw6qE,0.0
ZUn1gdgP_i4,0.0
ZUNiRZb0QFg,0.0
ZUZBOEkJ1qk,0.0
ZU79dl8d_lU,0.0003687995574405311
ZUG_iAEz-pQ,8.87705281846427e-05
ZUoE6o0l_3o,0.00026259287292049616
ZUFAJL8PmjY,0.0
ZUK1Yx8vVcc,0.0
ZUTkW_hV_2k,0.00037995524971503355
ZUtNVi3qRAI,-1
ZUMmIb69ddg,0.00013126804935678657
ZUax-khEjZk,0.0
ZUmquRgzxUA,0.0
ZUeJuQk0684,0.0
ZUJUldErBUU,0.005981511691136488
ZULX95KzVtc,0.00016062291094606895
ZUGM0M5IImQ,0.00016168802295969925
ZUQEp1GLQl8,0.0003791469194312796
ZU2CO7oXivQ,0.00020885547201336674
ZU7jPEmoy2w,0.0006481581505887436
ZUbUekW4oHA,0.0004520795660036166
ZUTai8RY9MY,0.0
ZUppIUaxl0w,0.0003541076487252125
ZUbY1IEDBXE,0.0
ZU_uAth970c,0.0005449591280653951
ZUaCRxIv9S0,0.00029481132075471697
ZUQzW6nr9AU,0.0033748701973001036
ZUTH7ORlzVo,0.0
ZUPUyEfqtAg,0.0005634136939180975
ZUkGC-nru4s,0.0
ZUHnxRv8ZIg,0.0003895481241759559
ZUjgyC7abcU,0.00012776831345826236
ZU3sggA345k,1.6157699143641945e-05
ZUm0S9fEmdo,0.0
ZUKtCHbXIo4,0.0006561679790026247
ZUvc-xV93q0,0.0009606916980225762
ZUpsIjjWhj8,0.00026917900403768504
ZUshYKxI8qU,0.0
ZUl767irZQM,0.00013545088212386984
ZUylU_0l0Vc,0.0
ZUVPZAfXkKM,0.0
ZUUwt-PTrqg,0.0006873639592164051
ZUl8MSCDny8,0.00030308898187359504
ZU_FlG12EY0,0.0012583892617449664
ZUL2Az1O2RY,0.0006409229290177856
ZU7vjS9HN80,0.0
ZUkZa6clYmA,0.0001970745379696943
ZUb5spOBi6E,0.0
ZUjhylJqhxg,0.00036601307189542483
ZUmCEVMAeek,0.0007468259895444362
ZUm-M9xizDw,0.0007109341674960899
ZU0-Py6Za6I,0.0
ZUAAht0aUws,0.0
ZUIys9-bDSw,0.0
ZUTMrv_Ibvo,0.0002914353189458081
ZUjrY9RV9Fw,0.00046860356138706655
ZUMQ1YbrzUA,0.000582495995340032
ZUXLX0nf0js,0.0002781254345709915
ZUhocJw6sl0,0.0
ZUkKiazpHdQ,0.00625
ZUEbUsHi5cI,7.710008777548454e-05
ZUozVUfE3Gw,0.001607717041800643
ZUCtPTuQKqU,0.0008566533409480297
ZUxnVuNFJJk,0.0
ZU2yUDDUrmw,0.0003206047618244098
ZURBXrJ0RAE,0.0
ZUUPxV-4MZg,0.0
ZUXqp-Ek9d8,0.0
ZUSj6ZIkns4,0.0001438021282714984
ZUI-e0hnqaI,0.0
ZUs6_S6XH3Y,0.0
ZUv39Gx3EN0,0.0005360903695194333
ZUZravRuRP0,8.863676653075696e-05
ZUgBMGAECvU,0.0
ZU_wWLDV41o,0.00023889154323936931
ZUVcwknxaEg,0.0001680933047143707
ZUN1IOBm7yQ,0.00015549681231534753
ZUZj7TkLDdc,0.0
ZUzFwimTE_Y,0.0007700205338809035
ZUU0WQHMtK4,0.0
ZUzkC7hDYz0,0.00014010017162271023
ZUF8uEeFI6o,0.00013605442176870748
ZUlExSPEmWg,0.0003165358318561661
ZUaEZhCU8QU,0.0
ZU5tyqIzTko,9.981700216270171e-05
ZUH2JWEYKDM,0.0011350737797956867
ZU78MpMO8cg,0.0002942907592701589
ZUlYgf8WGhY,0.00012748597654258032
ZUJRyR80NQE,0.0
ZURKdA8U6x8,0.0
ZUVqGD79O5U,0.0
ZUQMwkNoGv0,0.0005680204487361545
ZUceHxIiq5k,0.0
ZUyt3YSu28U,0.00020521239482864764
ZUWCTcf3fuE,0.0001808699846260513
ZUzS-wK8yCA,0.0
ZUuCdXKGsYA,0.00035803795202291446
ZUotvLGUnCQ,0.0004919645785503444
ZUFP6k61B7U,5.985873338920148e-05
ZUFfDX52xy4,0.0
ZULT4wQuejs,4.583791712504584e-05
ZUSH6DWmwUA,0.0
ZUqS7ShxNZc,0.0001689775082043027
ZUiUV3drPsE,0.0
ZU2MYq9TsC8,0.00042742349119507606
ZUDT_CFpHy8,0.00022931835120105487
ZUHTK6PsXi0,0.0
ZUJdfxEY_18,0.00017204301075268816
ZUfBgWM4hDM,0.0
ZUWJ4YPt5P8,0.0
ZUACS-Iyj7A,0.00117820324005891
ZUDrFfXBf4Y,0.00016233253701813285
ZUQnoyzszhs,0.0
ZUHlGHEkKVw,0.0006837606837606838
ZUm_sWXS004,0.00034782608695652176
ZUFAYSbeASs,0.0
ZUakXBf2Fb8,0.00026021337496747333
ZUbXvDksR34,0.00010604453870625662
ZUiWgW-B_eo,6.402458544080927e-05
ZUjDmO9w3Iw,7.681081496274676e-05
ZU3CMtiV_FU,0.002155529762891726
ZUUBy7v5ppw,0.00023512814483893723
ZU_bGc3_eA4,0.00017277125086385625
ZUdrsHwOeEA,0.0
ZUxrFWoZ_zE,0.0005997001499250374
ZUgeMn6Sx-k,0.0
ZUlLLpo6gUA,0.00039840637450199205
ZUno9EWiDAE,0.001986067882021639
ZUdf6dCZkaI,0.0003716090672612412
ZUk70T1qSxE,0.0004278990158322636
ZUDzN5BC8To,7.74773378786705e-05
ZU1pf5ABhlQ,0.00012132057445292003
ZUC9G6FwrVY,0.0
ZU3DZlB1FVg,0.00018375597206909226
ZUExTnE9gWE,2.5075854459740714e-05
