videoId,channelId,subscriberCount
vMtL0j7xPog,UCq-Fj5jknLsUf-MWSy4_brA,25253114.0
1-pUaogoX5o,UC-8Q-hLdECwQmaWNwXitYDw,24412286.0
T4giMyqv0qc,UCRijo3ddMTht_IHyNSNXpNQ,22905062.0
6YMyjYt5_mw,UCY30JRSgfhYXA6i6xX1erWg,22734349.0
6wBzR7zhA0g,UCbW18JZRgko_mOGm5er8Yzg,22643492.0
4kBIDcJHzOQ,UCKqH_9mk1waLgBiL2vT5b9g,21310712.0
Uma-p8c-r0A,UCp0hYYBW6IMayGgR-WeoCvQ,20789610.0
Xeje_pp_NyA,UCSAUGyc_xA8uYzaIVG6MESQ,20094581.0
6Z5furu9hCc,UCam8T03EOFBsNdR0thrFHdQ,19371581.0
69mDKM4JvVI,UCBNs31xysxpAGMheg8OrngA,19362119.0
XYgSHOWNE0M,UCpDJl2EmP7Oh90Vylx0dZtA,18578784.0
XYPPeV9L-1c,UC7_YxT-KID8kRbqZo7MyscQ,18518122.0
YPXmEguNr6k,UCJ5v_MCY6GNUBTO8-D3XoAg,18060619.0
70XbeQOBoMw,UCVtFOytbRpEvzLjvqGG5gxQ,17225199.0
7YQ7xGEVMaw,UCYzPXprvl5Y-Sf0g4vX-m6g,16748274.0
6Fz35PNTOqs,UCS5Oz6CHmeoF7vSad0qqXfw,16427126.0
T57IfDEJspg,UC_TVqp_SyG6j5hG-xVRy95A,16332880.0
34Y5Rhjyr2U,UCpEhnqL0y41EpW2TvWAHD7Q,14528435.0
2--CwKYa3cY,UCMu5gPmKp5av0QCAajKTMhw,14249330.0
RJBy4ob_ePI,UCEWHPFNilsT0IfQfutVzsag,13429611.0
