http://vk.com/cherkassynews
http://www.youtube.com/user/alexgorishniy
http://fitneslife.ru/trainingonline.html
http://vkontakte.ru/alexgorishniy
http://vkontakte.ru/id5311039
http://www.facebook.com/alex.gorishniy

.    ,       .     ,   ,       3-     .              .

         ,   ,          

http://fitneslife.ru/trainingonline.html