   -       ,        .  7  :

0:18   ;
0:52  ;
2:22 ;
3:08 ,  ,  ,  .

      - http://www.youtube.com/watch?v=ZjxEC_O-I0Y&index=20&list=PLU2WzCuyLIZGsCI5-EXkdqEaaNMuC4exp
    - http://www.youtube.com/watch?v=VahzXwyRx3s&list=PLU2WzCuyLIZGsCI5-EXkdqEaaNMuC4exp&index=22
       - http://www.youtube.com/watch?v=aG0cvsJm3-o&index=18&list=PLU2WzCuyLIZGsCI5-EXkdqEaaNMuC4exp

   http://vk.com/voennoe_remeslo
 https://twitter.com/VoennoeRemeslo

       .        150  .    ,        .         :   ,    .          .  ,   ,  .  ?        .