 http://filmsgate.net/?page_id=1063
  http://filmsgate.net
   https://twitter.com/FILMSGATE
   filmsgate.net@gmail.com
------------------------------------------------------------------------------
For download http://filmsgate.net/?page_id=1063
To visit our website http://filmsgate.net
To follow us in Twitter https://twitter.com/FILMSGATE
For information contact us at 
filmsgate.net@gmail.com