  "  ?",         ,      ,  Yongnuo YN 568EX  !            !

      -  http://goo.gl/Nu5UZq

   AliExpress - http://vk.com/buyalibuy
----------------------------------------------------------------------
 %   - https://goo.gl/kWQaXq
----------------------------------------------------------------------
     http://youtube.com/MrUnderSan
----------------------------------------------------------------------
 - http://vk.com/MrUnderSan
----------------------------------------------------------------------
Instagram - http://instagram.com/MrUnderSan
----------------------------------------------------------------------
Twitter- http://twitter.com/MrUnderSan
----------------------------------------------------------------------
Facebook - http://facebook.com/MrUnderSan
----------------------------------------------------------------------
Google+ -  http://google.com/+UnderSan69