  Bhojpuri Video      Plz   Subscribe - Subscribe Now:- http://goo.gl/ip2lbk
---------------------------------------------------------------------------------
Album :- Holiya Me Udela Gulal
Singer :- Anu Dubey
Company/ Label :- WAVE