DESCARGAR Los Simpsons Hit And Run FULL ISO ESPAOL 4SHARED
http://bit.ly/2qboKL7

---------------------------------------------------------------------

Pgina Oficial:
http://bit.ly/2pNdza6

Pgina En Facebook BlizzBoyGames:
http://bit.ly/2qMBzsm

Pgina En Facebook LexTeckGames:
http://bit.ly/2qb66TC