    http://youtu.be/3XrflVvmI4I
       http://youtu.be/qTL3FkPDqj4
 .+380681315898 
: kostya2965
 https://green2.globus-inter.com

       
  ,    . 
    ! 
       . 
    , , e-mail   
 ,       
   . 
     . 
        
 !    
http://green2.globus-inter.com   . 
       
 . ( https://www.youtube.com/watch?v=e_fNAZSzO4c&list=PLfL7vj7DXMCWS2wrY3wQ9pHB940F1GFPC&index=2 )
        
   ...  
     
  .     
    ! 
        . 
        
    .        
  .         
     . 
         100% 
    ,  . 
   https://www.youtube.com/watch?v=f68b2KVoRkM&list=UUORcPZDJQxjx5dyhaZRk-Mg