,    VPN     PPTP       Windows:
0:20 -   PPTP-  Windows;
1:06 -  PPTP-;
1:41 -   PPTP.

 : https://vps.ua/
    :
https://www.facebook.com/VPS.ua
https://plus.google.com/+VpsUa/posts
https://twitter.com/vps_ua