J-US New Song Project: BORN AGAIN    ' ' !

' ' 
      ,
      ,
         . 
     ,
          .

 New Song Project: BORN AGAIN , 
              . 
    .


 :   _  :  /  : 

verse)
     
    

     
       

pre-chorus)
      

Chorus)
      
    
     
    


Facebook : https://www.facebook.com/page.J.US
Website : http://jusworship.com
Twitter : @jusworship