   1    
    http://alcohol-120.en.softonic.com/download
      http://coolrom.com/roms/psx/38514/Crash_Bash.php
      
           
----------------------------------------------------------
      :)
https://twitter.com/Station4Video1
---------------------------------------------------------
       
https://www.youtube.com/channel/UCbUp2Uo4L2Q8s6tfpqGKcpA
---------------------------------------------------------
   
https://www.facebook.com/faisal.zaid.750
-----------------------------------------------------------------------------------------------