        !

3@: Foreign Beggars feat. Noisia - Contact , Walt Disney -    , Hypnogaja - They Don't Care Clean ,  -   

[cc]
http://vkontakte.ru/onepointreviews - 
http://www.youtube.com/user/OnePointReviews - 
https://twitter.com/#!/OnePointReviews - 
https://plus.google.com/u/0/b/110989262199201684036/110989262199201684036 -  +
OnePointReviews - !
onepointrev - PSN!