Hoy os traigo un nuevo Trailer del mapa de aventuras ``The Bamboo House

El mapa de aventuras de un amigo al que me ofreci voluntario para hacerle este trailer
Un saludo desde Zaragoza: MrBambu :D

------------------------------------------------------------------------------------------------------------------------------
Musica: Escaflowne: http://www.youtube.com/watch?v=zVi2HVWm72c
Autor: Snowgoons
Todos los derechos de Copyright reservados a sus respectivos autores
-----------------------------------------------------------------------------------------------------------------------------