Bullet For My Valentine - Waking The Demon
Thief 2014

Can we get 10 likes?
-----------------------------LINKS-----------------------------------------------------
My MC Server Site - souleatermc.enjin.com
My friend Heroic405's Server - http://wimpy.enjin.com/
Skype - gawainsonic1
Facebook - https://www.facebook.com/pages/The-Gawainsonic/412870788842650