 http://www.facebook.com/123HappyStudio 


https://www.facebook.com/photo.php?fbid=506615102720094&set=a.322827194432220.74175.322702014444738&type=1&theater

 : 

 ^^''    

 : ... 
 :  
 

  
 

*()  
  

**  
  
... 
 

  
  

Rap         