  
Melissa Pemberton

Smoke-N-Thunder Jet Car
Westinghouse J34-48, 10,000 HP
Accelerate from 0 to near 400 MPH in 9 sec

Zivko Edge-540
Lycoming AEIO-540, 327HP
Roll Rate 420 degrees/sec
Max G +/- 10

Air show at Chico California 2010