49  
2014.05.28. 20:00   
:    Republic of Korea vs Tunisia  

 ,      
  !!! _ 
 www.facebook.com/ekrak1
 http://blog.naver.com/ekrak1

,,  ,vs,  ,,  16 ,   ,,Red Devill's,Republic of Korea, Tunisia,Republic of Korea vs Tunisia
,Republic of Korea Tunisia,